…
### 2.arrange() 
__(__first__ , __second__, __third__)__  
__first__ = data frame  
__second__= 속성  
__third__= 속성  
```r
arrange(flights, year, month, day)
```

```r
# A tibble: 719 x 19
    year month   day dep_time sched_dep_time dep_delay arr_time sched_arr_time
   <int> <int> <int>    <int>          <int>     <dbl>    <int>          <int>
 1  2013    12    25      456            500        -4      649            651
 2  2013    12    25      524            515         9      805            814
 3  2013    12    25      542            540         2      832            850
 4  2013    12    25      546            550        -4     1022           1027
 5  2013    12    25      556            600        -4      730            745
 6  2013    12    25      557            600        -3      743            752
 7  2013    12    25      557            600        -3      818            831
 8  2013    12    25      559            600        -1      855            856
 9  2013    12    25      559            600        -1      849            855
10  2013    12    25      600            600         0      850            846
# ... with 709 more rows, and 11 more variables: arr_delay <dbl>,
#   carrier <chr>, flight <int>, tailnum <chr>, origin <chr>, dest <chr>,
#   air_time <dbl>, distance <dbl>, hour <dbl>, minute <dbl>, time_hour <dttm>
```
dept_time를 기준으로 내림차순 정리하고 싶으면 desc(dept_time)를 쓴다

```r 
arrange(flights,desc(dept_time))
```
<br>
<br>

### 3.select() 
column들을 선택한다  
```r
select(flights,year,month,day)
```
```r
# A tibble: 336,776 x 3
    year month   day
   <int> <int> <int>
 1  2013     1     1
 2  2013     1     1
 3  2013     1     1
 4  2013     1     1
 5  2013     1     1
 6  2013     1     1
 7  2013     1     1
 8  2013     1     1
 9  2013     1     1
10  2013     1     1
# ... with 336,766 more rows
```
…
```r
mutate(flights_sml,
  gain = dep_delay - arr_delay,
  speed = distance / air_time * 60)
```
결과
```r
# A tibble: 336,776 x 9
    year month   day dep_delay arr_delay distance air_time  gain speed
   <int> <int> <int>     <dbl>     <dbl>    <dbl>    <dbl> <dbl> <dbl>
 1  2013     1     1         2        11     1400      227    -9  370.
 2  2013     1     1         4        20     1416      227   -16  374.
 3  2013     1     1         2        33     1089      160   -31  408.
 4  2013     1     1        -1       -18     1576      183    17  517.
 5  2013     1     1        -6       -25      762      116    19  394.
 6  2013     1     1        -4        12      719      150   -16  288.
 7  2013     1     1        -5        19     1065      158   -24  404.
 8  2013     1     1        -3       -14      229       53    11  259.
 9  2013     1     1        -3        -8      944      140     5  405.
10  2013     1     1        -2         8      733      138   -10  319.
# ... with 336,766 more rows
```
…
#### Grouping by multiple variables
```r
daily <- group_by(flights, year, month, day)
(per_day   <- summarise(daily, flights = n()))
```
```r
# A tibble: 365 x 4
# Groups:   year, month [12]
    year month   day flights
   <int> <int> <int>   <int>
 1  2013     1     1     842
 2  2013     1     2     943
 3  2013     1     3     914
 4  2013     1     4     915
 5  2013     1     5     720
 6  2013     1     6     832
 7  2013     1     7     933
 8  2013     1     8     899
 9  2013     1     9     902
10  2013     1    10     932
# ... with 355 more rows
```
…
