…
 9 HA      Hawaiian Airlines Inc.
10 MQ      Envoy Air
11 OO      SkyWest Airlines Inc.
12 UA      United Air Lines Inc.
13 US      US Airways Inc.
14 VX      Virgin America
15 WN      Southwest Airlines Co.
16 YV      Mesa Airlines Inc.
```
`faa`로 identified된 `airports`는 airport에 대한 정보를 제공한다.  
```r
airports
```
```r
# A tibble: 1,458 x 8
   faa   name                             lat    lon   alt    tz dst   tzone    
   <chr> <chr>                          <dbl>  <dbl> <dbl> <dbl> <chr> <chr>
 1 04G   Lansdowne Airport               41.1  -80.6  1044    -5 A     America/~
 2 06A   Moton Field Municipal Airport   32.5  -85.7   264    -6 A     America/~
 3 06C   Schaumburg Regional             42.0  -88.1   801    -6 A     America/~
 4 06N   Randall Airport                 41.4  -74.4   523    -5 A     America/~
 5 09J   Jekyll Island Airport           31.1  -81.4    11    -5 A     America/~
 6 0A9   Elizabethton Municipal Airport  36.4  -82.2  1593    -5 A     America/~
 7 0G6   Williams County Airport         41.5  -84.5   730    -5 A     America/~
 8 0G7   Finger Lakes Regional Airport   42.9  -76.8   492    -5 A     America/~
 9 0P2   Shoestring Aviation Airfield    39.8  -76.6  1000    -5 U     America/~
10 0S9   Jefferson County Intl           48.1 -123.    108    -8 A     America/~
# ... with 1,448 more rows
```
`tailnum`으로 identified 된 `planes`는 각각의 plane에 대한 정보를 제공한다.
```r
planes
```
```r
# A tibble: 3,322 x 9
   tailnum  year type          manufacturer   model  engines seats speed engine
   <chr>   <int> <chr>         <chr>          <chr>    <int> <int> <int> <chr>
 1 N10156   2004 Fixed wing m~ EMBRAER        EMB-1~       2    55    NA Turbo-~
 2 N102UW   1998 Fixed wing m~ AIRBUS INDUST~ A320-~       2   182    NA Turbo-~
 3 N103US   1999 Fixed wing m~ AIRBUS INDUST~ A320-~       2   182    NA Turbo-~
 4 N104UW   1999 Fixed wing m~ AIRBUS INDUST~ A320-~       2   182    NA Turbo-~
 5 N10575   2002 Fixed wing m~ EMBRAER        EMB-1~       2    55    NA Turbo-~
 6 N105UW   1999 Fixed wing m~ AIRBUS INDUST~ A320-~       2   182    NA Turbo-~
 7 N107US   1999 Fixed wing m~ AIRBUS INDUST~ A320-~       2   182    NA Turbo-~
 8 N108UW   1999 Fixed wing m~ AIRBUS INDUST~ A320-~       2   182    NA Turbo-~
 9 N109UW   1999 Fixed wing m~ AIRBUS INDUST~ A320-~       2   182    NA Turbo-~
10 N110UW   1999 Fixed wing m~ AIRBUS INDUST~ A320-~       2   182    NA Turbo-~
# ... with 3,312 more rows
```
`weather`는 nyc 공항의 매 시각 날씨를 제공한다.  
```r
# A tibble: 26,115 x 15
   origin  year month   day  hour  temp  dewp humid wind_dir wind_speed
   <chr>  <int> <int> <int> <int> <dbl> <dbl> <dbl>    <dbl>      <dbl>
 1 EWR     2013     1     1     1  39.0  26.1  59.4      270      10.4 
 2 EWR     2013     1     1     2  39.0  27.0  61.6      250       8.06
 3 EWR     2013     1     1     3  39.0  28.0  64.4      240      11.5 
 4 EWR     2013     1     1     4  39.9  28.0  62.2      250      12.7
 5 EWR     2013     1     1     5  39.0  28.0  64.4      260      12.7
 6 EWR     2013     1     1     6  37.9  28.0  67.2      240      11.5
 7 EWR     2013     1     1     7  39.0  28.0  64.4      240      15.0 
 8 EWR     2013     1     1     8  39.9  28.0  62.2      250      10.4
 9 EWR     2013     1     1     9  39.9  28.0  62.2      260      15.0
10 EWR     2013     1     1    10  41    28.0  59.6      260      13.8
# ... with 26,105 more rows, and 5 more variables: wind_gust <dbl>,
#   precip <dbl>, pressure <dbl>, visib <dbl>, time_hour <dttm>
```
…
때로는 명시적으로 primary key를 발견하지 못할 수 있다. 예를 들어 어떤 variable의 조합들도 observation을 identify 못할 수도 있다. 예를 들어 `flights`의 primary key는 뭘까? date+ flight 아니면 date+ tailnumber? 둘 다 아니다.  

```r
flights %>% 
  count(year, month, day, flight) %>% 
  filter(n > 1)
  ```
```r
# A tibble: 29,768 x 5
    year month   day flight     n
   <int> <int> <int>  <int> <int>
 1  2013     1     1      1     2
 2  2013     1     1      3     2
 3  2013     1     1      4     2
 4  2013     1     1     11     3
 5  2013     1     1     15     2
 6  2013     1     1     21     2
 7  2013     1     1     27     4
 8  2013     1     1     31     2
 9  2013     1     1     32     2
10  2013     1     1     35     2
# ... with 29,758 more rows
```
```r
flights %>% 
  count(year, month, day, tailnum) %>% 
  filter(n > 1)
```
```r
# A tibble: 64,928 x 5
    year month   day tailnum     n
   <int> <int> <int> <chr>   <int>
 1  2013     1     1 N0EGMQ      2
 2  2013     1     1 N11189      2
 3  2013     1     1 N11536      2
 4  2013     1     1 N11544      3
 5  2013     1     1 N11551      2
 6  2013     1     1 N12540      2
 7  2013     1     1 N12567      2
 8  2013     1     1 N13123      2
 9  2013     1     1 N13538      3
10  2013     1     1 N13566      3
# ... with 64,918 more rows
```
…
### 11-4 Mutating joins
table들을 합치는 tool 중 처음 볼 것은 __mutating join__ 이다. key를 통해 observation을 match 한 다음에 다른 table의 variable을 가져온다.  

`mutate`처럼 variable을 오른쪽에 추가한다.  

```r
flights2 <- flights %>% 
  select(year:day, hour, origin, dest, tailnum, carrier)
flights2
```
```r
# A tibble: 336,776 x 8
    year month   day  hour origin dest  tailnum carrier
   <int> <int> <int> <dbl> <chr>  <chr> <chr>   <chr>
 1  2013     1     1     5 EWR    IAH   N14228  UA     
 2  2013     1     1     5 LGA    IAH   N24211  UA
 3  2013     1     1     5 JFK    MIA   N619AA  AA
 4  2013     1     1     5 JFK    BQN   N804JB  B6
 5  2013     1     1     6 LGA    ATL   N668DN  DL
 6  2013     1     1     5 EWR    ORD   N39463  UA     
 7  2013     1     1     6 EWR    FLL   N516JB  B6
 8  2013     1     1     6 LGA    IAD   N829AS  EV
 9  2013     1     1     6 JFK    MCO   N593JB  B6
10  2013     1     1     6 LGA    ORD   N3ALAA  AA     
# ... with 336,766 more rows
```
`flights2`에 airline의 full name을 넣고 싶다면, `left_join()`를 통해 `airlines`와 `flights2`를 합치면 된다.  
```r
flights2 %>%
  select(-origin, -dest) %>% 
  left_join(airlines, by = "carrier")
  ```
```r
# A tibble: 336,776 x 7
    year month   day  hour tailnum carrier name
   <int> <int> <int> <dbl> <chr>   <chr>   <chr>
 1  2013     1     1     5 N14228  UA      United Air Lines Inc.   
 2  2013     1     1     5 N24211  UA      United Air Lines Inc.
 3  2013     1     1     5 N619AA  AA      American Airlines Inc.
 4  2013     1     1     5 N804JB  B6      JetBlue Airways
 5  2013     1     1     6 N668DN  DL      Delta Air Lines Inc.
 6  2013     1     1     5 N39463  UA      United Air Lines Inc.
 7  2013     1     1     6 N516JB  B6      JetBlue Airways
 8  2013     1     1     6 N829AS  EV      ExpressJet Airlines Inc.
 9  2013     1     1     6 N593JB  B6      JetBlue Airways
10  2013     1     1     6 N3ALAA  AA      American Airlines Inc.
# ... with 336,766 more rows
```
…
#### 11-4-5 Defining the key columns
지금까지는 두 개의 공통으로 있는 한 개의 variable의 name으로 joing하였는데 이는 `by = "key"`로 가능한 것이었다. 

`by`를 사용하여 다른 방식으로 이을 수 있다. 

- `by = NULL`은 default로 모든 table의 variable을 쓴다. 이를 __natural join__ 이라 부른다.
```r
flights2 %>% 
  left_join(weather)
  ```
```r
Joining, by = c("year", "month", "day", "hour", "origin")
# A tibble: 336,776 x 18
    year month   day  hour origin dest  tailnum carrier  temp  dewp humid
   <int> <int> <int> <dbl> <chr>  <chr> <chr>   <chr>   <dbl> <dbl> <dbl>
 1  2013     1     1     5 EWR    IAH   N14228  UA       39.0  28.0  64.4
 2  2013     1     1     5 LGA    IAH   N24211  UA       39.9  25.0  54.8
 3  2013     1     1     5 JFK    MIA   N619AA  AA       39.0  27.0  61.6
 4  2013     1     1     5 JFK    BQN   N804JB  B6       39.0  27.0  61.6
 5  2013     1     1     6 LGA    ATL   N668DN  DL       39.9  25.0  54.8
 6  2013     1     1     5 EWR    ORD   N39463  UA       39.0  28.0  64.4
 7  2013     1     1     6 EWR    FLL   N516JB  B6       37.9  28.0  67.2
 8  2013     1     1     6 LGA    IAD   N829AS  EV       39.9  25.0  54.8
 9  2013     1     1     6 JFK    MCO   N593JB  B6       37.9  27.0  64.3
10  2013     1     1     6 LGA    ORD   N3ALAA  AA       39.9  25.0  54.8
# ... with 336,766 more rows, and 7 more variables: wind_dir <dbl>,
#   wind_speed <dbl>, wind_gust <dbl>, precip <dbl>, pressure <dbl>,
#   visib <dbl>, time_hour <dttm>
```
- `by = "x"`는 natural join과 비슷하지만, common variable의 일부만 사용한다.  
예를 들어, `flights`와 `planes`는 `year` variable을 가지고 있지만, 서로 다른 의미를 가지고 있기에 `tailnum`으로만 join을 해보도록 하자.  
```r
flights2 %>% 
  left_join(planes, by = "tailnum")
```
```r
# A tibble: 336,776 x 16
   year.x month   day  hour origin dest  tailnum carrier year.y type
    <int> <int> <int> <dbl> <chr>  <chr> <chr>   <chr>    <int> <chr>
 1   2013     1     1     5 EWR    IAH   N14228  UA        1999 Fixed wing mult~
 2   2013     1     1     5 LGA    IAH   N24211  UA        1998 Fixed wing mult~
 3   2013     1     1     5 JFK    MIA   N619AA  AA        1990 Fixed wing mult~
 4   2013     1     1     5 JFK    BQN   N804JB  B6        2012 Fixed wing mult~
 5   2013     1     1     6 LGA    ATL   N668DN  DL        1991 Fixed wing mult~
 6   2013     1     1     5 EWR    ORD   N39463  UA        2012 Fixed wing mult~
 7   2013     1     1     6 EWR    FLL   N516JB  B6        2000 Fixed wing mult~
 8   2013     1     1     6 LGA    IAD   N829AS  EV        1998 Fixed wing mult~
 9   2013     1     1     6 JFK    MCO   N593JB  B6        2004 Fixed wing mult~
10   2013     1     1     6 LGA    ORD   N3ALAA  AA          NA NA
# ... with 336,766 more rows, and 6 more variables: manufacturer <chr>,
#   model <chr>, engines <int>, seats <int>, speed <int>, engine <chr>
```
…
