…
date: 2022-01-02
---
## 10 Tibble

__tibble__ 은 R의 전통적인 data frame에 비해 보다 쉽게 쓸 수 있는 data frame이다.    
지금까지 소개한 tidyverse의 tibbles을 제공하지만, 대부분의 다른 package들은 regular data frames를 사용한다. 따라서 이를 __tibble화__ 시킬 필요가 있다.  
이는 `as_tibble()`을 통해 가능하다. 

```r
as_tibble(iris)
```
```r
# A tibble: 150 x 5
   Sepal.Length Sepal.Width Petal.Length Petal.Width Species
          <dbl>       <dbl>        <dbl>       <dbl> <fct>
 1          5.1         3.5          1.4         0.2 setosa
 2          4.9         3            1.4         0.2 setosa
 3          4.7         3.2          1.3         0.2 setosa
 4          4.6         3.1          1.5         0.2 setosa
 5          5           3.6          1.4         0.2 setosa
 6          5.4         3.9          1.7         0.4 setosa
 7          4.6         3.4          1.4         0.3 setosa
 8          5           3.4          1.5         0.2 setosa 
 9          4.4         2.9          1.4         0.2 setosa
10          4.9         3.1          1.5         0.1 setosa
# ... with 140 more rows
```
…
#### 10-2-1 Printing
__printing__ 에서 둘은 차이점을 보인다. __Tibble__ 은 __10개의 row__ 만 보여준다.  그리고 화면에 맞게 collumn을 보여준다. 또한 각 __column의 유형__ 을 알려준다. ~~str()에서 알 수 있는 것~~

```r
tibble(
  a = lubridate::now() + runif(1e3) * 86400,
  b = lubridate::today() + runif(1e3) * 30,
  c = 1:1e3,
  d = runif(1e3),
  e = sample(letters, 1e3, replace = TRUE)
)
```
```r
# A tibble: 1,000 x 5
   a                   b              c      d e
   <dttm>              <date>     <int>  <dbl> <chr>
 1 2022-01-02 15:26:46 2022-01-25     1 0.354  t
 2 2022-01-02 22:46:00 2022-01-18     2 0.273  d
 3 2022-01-03 00:12:13 2022-01-03     3 0.962  b
 4 2022-01-02 12:16:48 2022-01-24     4 0.306  v
 5 2022-01-02 06:25:59 2022-01-29     5 0.406  y    
 6 2022-01-02 04:25:16 2022-01-15     6 0.488  w
 7 2022-01-02 06:43:57 2022-01-20     7 0.518  h
 8 2022-01-02 14:24:35 2022-01-27     8 0.0549 t
 9 2022-01-02 03:47:47 2022-01-03     9 0.970  x
10 2022-01-02 16:17:26 2022-01-21    10 0.996  g
# ... with 990 more rows
```
…
또 다른 방법으로는 `option`을 건드리는 것이다.  
- options(tibble.width = Inf)  
모든 row를 보여준다  


- options(tibble.print_max = n, tibble.print_min = m)  
만약 n개의 row보다 많으면 m개의 row만 표시한다.  
```r
options(tibble.print_max = 3, tibble.print_min = 4)
# A tibble: 336,776 x 19
   year month   day dep_time sched_dep_time dep_delay arr_time sched_arr_time
  <int> <int> <int>    <int>          <int>     <dbl>    <int>          <int>
1  2013     1     1      517            515         2      830            819
2  2013     1     1      533            529         4      850            830
3  2013     1     1      542            540         2      923            850
4  2013     1     1      544            545        -1     1004           1022
# ... with 336,772 more rows, and 11 more variables: arr_delay <dbl>,
#   carrier <chr>, flight <int>, tailnum <chr>, origin <chr>, dest <chr>,
#   air_time <dbl>, distance <dbl>, hour <dbl>, minute <dbl>, time_hour <dttm>
```
…
