…
### 12-5 Case study
이 챕터에서 배운 내용들을 총망라해보도록 하자.  
`tidyr::who`는  year, country, age, gender, diagnosis method에 따른  tuberculosis (TB) cases를 가지고 있다.  
(TB는 폐에 영향을 줄 수 있는 잠재적인 감염성 잘병이다.)
<br>
```r
# A tibble: 7,240 x 60
   country  iso2  iso3   year new_sp_m014 new_sp_m1524 new_sp_m2534 new_sp_m3544
   <chr>    <chr> <chr> <int>       <int>        <int>        <int>        <int>
 1 Afghani~ AF    AFG    1980          NA           NA           NA           NA
 2 Afghani~ AF    AFG    1981          NA           NA           NA           NA
 3 Afghani~ AF    AFG    1982          NA           NA           NA           NA
 4 Afghani~ AF    AFG    1983          NA           NA           NA           NA
 5 Afghani~ AF    AFG    1984          NA           NA           NA           NA
 6 Afghani~ AF    AFG    1985          NA           NA           NA           NA
 7 Afghani~ AF    AFG    1986          NA           NA           NA           NA
 8 Afghani~ AF    AFG    1987          NA           NA           NA           NA
 9 Afghani~ AF    AFG    1988          NA           NA           NA           NA
10 Afghani~ AF    AFG    1989          NA           NA           NA           NA
# ... with 7,230 more rows, and 52 more variables: new_sp_m4554 <int>,
#   new_sp_m5564 <int>, new_sp_m65 <int>, new_sp_f014 <int>,
#   new_sp_f1524 <int>, new_sp_f2534 <int>, new_sp_f3544 <int>,
#   new_sp_f4554 <int>, new_sp_f5564 <int>, new_sp_f65 <int>,
#   new_sn_m014 <int>, new_sn_m1524 <int>, new_sn_m2534 <int>,
#   new_sn_m3544 <int>, new_sn_m4554 <int>, new_sn_m5564 <int>,
#   new_sn_m65 <int>, new_sn_f014 <int>, new_sn_f1524 <int>, ...
```
…
```r
who1 <- who %>% 
  pivot_longer(
    cols = new_sp_m014:newrel_f65, 
    names_to = "key", 
    values_to = "cases", 
    values_drop_na = TRUE
  )
who1
  ```
```r
# A tibble: 76,046 x 6
   country     iso2  iso3   year key          cases
   <chr>       <chr> <chr> <int> <chr>        <int>
 1 Afghanistan AF    AFG    1997 new_sp_m014      0
 2 Afghanistan AF    AFG    1997 new_sp_m1524    10
 3 Afghanistan AF    AFG    1997 new_sp_m2534     6
 4 Afghanistan AF    AFG    1997 new_sp_m3544     3
 5 Afghanistan AF    AFG    1997 new_sp_m4554     5
 6 Afghanistan AF    AFG    1997 new_sp_m5564     2
 7 Afghanistan AF    AFG    1997 new_sp_m65       0
 8 Afghanistan AF    AFG    1997 new_sp_f014      5
 9 Afghanistan AF    AFG    1997 new_sp_f1524    38
10 Afghanistan AF    AFG    1997 new_sp_f2534    36
# ... with 76,036 more rows
```
key collumn의 값을 세어 봄으로써 힌트를 얻도록 하자. 
```r
who1 %>% 
  count(key)
```
```r
# A tibble: 56 x 2
   key              n
   <chr>        <int>
 1 new_ep_f014   1032
 2 new_ep_f1524  1021
 3 new_ep_f2534  1021
 4 new_ep_f3544  1021
 5 new_ep_f4554  1017
 6 new_ep_f5564  1017
 7 new_ep_f65    1014
 8 new_ep_m014   1038
 9 new_ep_m1524  1026
10 new_ep_m2534  1020
# ... with 46 more rows
```
…
`str_replace()`를 통해 `new_rel` 대신에 `newrel`로 바꿔준다. 
```r
who2 <- who1 %>% 
  mutate(key = stringr::str_replace(key, "newrel", "new_rel"))
who2
```
```r
# A tibble: 76,046 x 6
   country     iso2  iso3   year key          cases
   <chr>       <chr> <chr> <int> <chr>        <int>
 1 Afghanistan AF    AFG    1997 new_sp_m014      0
 2 Afghanistan AF    AFG    1997 new_sp_m1524    10
 3 Afghanistan AF    AFG    1997 new_sp_m2534     6
 4 Afghanistan AF    AFG    1997 new_sp_m3544     3
 5 Afghanistan AF    AFG    1997 new_sp_m4554     5
 6 Afghanistan AF    AFG    1997 new_sp_m5564     2
 7 Afghanistan AF    AFG    1997 new_sp_m65       0
 8 Afghanistan AF    AFG    1997 new_sp_f014      5
 9 Afghanistan AF    AFG    1997 new_sp_f1524    38
10 Afghanistan AF    AFG    1997 new_sp_f2534    36
# ... with 76,036 more rows
```
```r
who3 <- who2 %>% 
  separate(key, c("new", "type", "sexage"), sep = "_")
who3
```
```r
# A tibble: 76,046 x 8
   country     iso2  iso3   year new   type  sexage cases
   <chr>       <chr> <chr> <int> <chr> <chr> <chr>  <int>
 1 Afghanistan AF    AFG    1997 new   sp    m014       0
 2 Afghanistan AF    AFG    1997 new   sp    m1524     10
 3 Afghanistan AF    AFG    1997 new   sp    m2534      6
 4 Afghanistan AF    AFG    1997 new   sp    m3544      3
 5 Afghanistan AF    AFG    1997 new   sp    m4554      5
 6 Afghanistan AF    AFG    1997 new   sp    m5564      2
 7 Afghanistan AF    AFG    1997 new   sp    m65        0
 8 Afghanistan AF    AFG    1997 new   sp    f014       5
 9 Afghanistan AF    AFG    1997 new   sp    f1524     38
10 Afghanistan AF    AFG    1997 new   sp    f2534     36
# ... with 76,036 more rows
```
…
`sexage`를 `sex`와 `age`로 분류해보자.  
```r
who5 <- who4 %>% 
  separate(sexage, c("sex", "age"), sep = 1)
who5
```
```r
# A tibble: 76,046 x 6
   country      year type  sex   age   cases
   <chr>       <int> <chr> <chr> <chr> <int>
 1 Afghanistan  1997 sp    m     014       0
 2 Afghanistan  1997 sp    m     1524     10
 3 Afghanistan  1997 sp    m     2534      6
 4 Afghanistan  1997 sp    m     3544      3
 5 Afghanistan  1997 sp    m     4554      5
 6 Afghanistan  1997 sp    m     5564      2
 7 Afghanistan  1997 sp    m     65        0
 8 Afghanistan  1997 sp    f     014       5
 9 Afghanistan  1997 sp    f     1524     38
10 Afghanistan  1997 sp    f     2534     36
# ... with 76,036 more rows
```
…
