…
1000개의 row를 통해 the column specification이 만들어졌다. 문제점을 명시적으로 보기 위해 `problems()`를 쓰는 것이 좋다.  

```r
problems(challenge)
```
```r
#> # A tibble: 1,000 x 5
#>     row col   expected        actual   file                                     
#>   <int> <chr> <chr>           <chr>    <chr>                                    
#> 1  1001 y     1/0/T/F/TRUE/F… 2015-01… '/Users/runner/work/_temp/Library/readr/…
#> 2  1002 y     1/0/T/F/TRUE/F… 2018-05… '/Users/runner/work/_temp/Library/readr/…
#> 3  1003 y     1/0/T/F/TRUE/F… 2015-09… '/Users/runner/work/_temp/Library/readr/…
#> 4  1004 y     1/0/T/F/TRUE/F… 2012-11… '/Users/runner/work/_temp/Library/readr/…
#> 5  1005 y     1/0/T/F/TRUE/F… 2020-01… '/Users/runner/work/_temp/Library/readr/…
#> 6  1006 y     1/0/T/F/TRUE/F… 2016-04… '/Users/runner/work/_temp/Library/readr/…
#> # … with 994 more rows
```
…
전 상황은 쫌 운이 없었다. 만약 row가 default보다 하나만 더 많았다면 한 번에 해결할 수도 있었다. 
```r
challenge2 <- read_csv(readr_example("challenge.csv"), guess_max = 1001)
challenge2
```
```r
#> 
#> ── Column specification ────────────────────────────────────────────────────────
#> cols(
#>   x = col_double(),
#>   y = col_date(format = "")
#> )

#> # A tibble: 2,000 x 2
#>       x y         
#>   <dbl> <date>    
#> 1   404 NA        
#> 2  4172 NA        
#> 3  3004 NA        
#> 4   787 NA        
#> 5    37 NA        
#> 6  2332 NA        
#> # … with 1,994 more rows
```
…
이미 존재하고 있는 파일을 덮어 쓰기하고 싶다면 다음과 같다.  
```r
write_csv(challenge, "challenge.csv")
```
<br>
정보가 lost되는 상황을 한 번 봐보자.  

```r
challenge
```

```r
# A tibble: 2,000 x 2
       x y
   <dbl> <date>
 1   404 NA    
 2  4172 NA
 3  3004 NA
 4   787 NA
 5    37 NA
 6  2332 NA    
 7  2489 NA
 8  1449 NA
 9  3665 NA
10  3863 NA
# ... with 1,990 more rows
```
```r
write_csv(challenge, "challenge-2.csv")
read_csv("challenge-2.csv")
```
```r
#> ── Column specification ────────────────────────────────────────────────────────
#> cols(
#>   x = col_double(),
#>   y = col_logical()
#> )
#> # A tibble: 2,000 x 2
#>       x y    
#>   <dbl> <lgl>
#> 1   404 NA   
#> 2  4172 NA   
#> 3  3004 NA   
#> 4   787 NA   
#> 5    37 NA   
#> 6  2332 NA   
#> # … with 1,994 more rows
```
y collum이 logical로 나오는 문제가 발생한다.  

(~~근데 내가 직접 코드 돌리면 logical이 아니고 똑같이 date가 나온다. 일단 진행~~)
이렇게 되면 불러올떄마다  매번 Column specification을 고쳐야 한다.  
여기 2가지 대안이 있다. 

1. `write_rds()` 와 `read_rds()`을 사용한다. 
```r
write_rds(challenge, "challenge.rds")
read_rds("challenge.rds")
```
```r
#> # A tibble: 2,000 x 2
#>       x y         
#>   <dbl> <date>    
#> 1   404 NA        
#> 2  4172 NA        
#> 3  3004 NA        
#> 4   787 NA        
#> 5    37 NA        
#> 6  2332 NA        
#> # … with 1,994 more rows
```

2. feather package는 programing language를 교차로 쓸 수 있게 해준다.  
```r
library(feather)
write_feather(challenge, "challenge.feather")
read_feather("challenge.feather")
```
```r
# A tibble: 2,000 x 2
       x y
   <dbl> <date>
 1   404 NA
 2  4172 NA
 3  3004 NA
 4   787 NA
 5    37 NA
 6  2332 NA
 7  2489 NA    
 8  1449 NA
 9  3665 NA
10  3863 NA
# ... with 1,990 more rows
```
